#include <GL/freeglut.h>
#include <stdio.h>

/*  Create checkerboard texture  */
#define checkImageWidth 64
#define checkImageHeight 64
static GLubyte checkImage[checkImageHeight][checkImageWidth][4];

static GLuint texName;

void makeCheckImage(void)
{
    int i, j, c;

    for (i = 0; i < checkImageHeight; i++)
    {
        for (j = 0; j < checkImageWidth; j++)
        {
            c = ((((i & 0x8) == 0) ^ ((j & 0x8)) == 0)) * 255;
            checkImage[i][j][0] = (GLubyte)c;
            checkImage[i][j][1] = (GLubyte)c;
            checkImage[i][j][2] = (GLubyte)c;
            checkImage[i][j][3] = (GLubyte)255;
        }
    }
}

void init(void)
{
    glClearColor(0.5, 0.5, 0.5, 0.0);
    glEnable(GL_DEPTH_TEST);

    makeCheckImage();
    //glPixelStorei(GL_UNPACK_ALIGNMENT, 1);

    glGenTextures(1, &texName);
    glBindTexture(GL_TEXTURE_2D, texName);

    //glTexParameteri(GL_TEXTURE_2D, GL_TEXTURE_WRAP_S, GL_REPEAT);
    //glTexParameteri(GL_TEXTURE_2D, GL_TEXTURE_WRAP_T, GL_REPEAT);
    glTexParameteri(GL_TEXTURE_2D, GL_TEXTURE_MAG_FILTER,
        GL_NEAREST);
    glTexParameteri(GL_TEXTURE_2D, GL_TEXTURE_MIN_FILTER,
        GL_NEAREST);
    glTexImage2D(GL_TEXTURE_2D, 0, GL_RGBA, checkImageWidth,
        checkImageHeight, 0, GL_RGBA, GL_UNSIGNED_BYTE,
        checkImage);
}

void display(void)
{
    glClear(GL_COLOR_BUFFER_BIT | GL_DEPTH_BUFFER_BIT);
    glMatrixMode(GL_MODELVIEW);
    glLoadIdentity();
    gluLookAt(0, 0, 5, 0, 0, 0, 0, 1, 0);

    glEnable(GL_TEXTURE_2D);

    glBindTexture(GL_TEXTURE_2D, texName);

    glBegin(GL_QUADS);
    {
        // 1 face
        glTexCoord2f(0.0, 0.0);
        glVertex3f(-2.0, -1.0, 0.0);
        glTexCoord2f(0.0, 1.0);
        glVertex3f(-2.0, 1.0, 0.0);
        glTexCoord2f(1.0, 1.0);
        glVertex3f(0.0, 1.0, 0.0);
        glTexCoord2f(1.0, 0.0);
        glVertex3f(0.0, -1.0, 0.0);

        // 2 face
        glTexCoord2f(0.0, 0.0);
        glVertex3f(1.0, -1.0, 0.0);
        glTexCoord2f(0.0, 1.0);
        glVertex3f(1.0, 1.0, 0.0);
        glTexCoord2f(1.0, 1.0);
        glVertex3f(2.41421, 1.0, -1.41421);
        glTexCoord2f(1.0, 0.0);
        glVertex3f(2.41421, -1.0, -1.41421);
    }
    glEnd();

    glFlush();

    glDisable(GL_TEXTURE_2D);
}

void reshape(int w, int h)
{
    glViewport(0, 0, (GLsizei)w, (GLsizei)h);
    glMatrixMode(GL_PROJECTION);
    glLoadIdentity();
    gluPerspective(60.0, (GLfloat)w / (GLfloat)h, 1.0, 30.0);
}

void keyboard(unsigned char key, int x, int y)
{
    switch (key)
    {
    case 27:
        exit(0);
        break;
    default:
        break;
    }
}

int main(int argc, char** argv)
{
    glutInit(&argc, argv);
    glutInitDisplayMode(GLUT_RGBA | GLUT_DEPTH);
    glutInitWindowSize(1280, 720);
    glutInitWindowPosition(50, 50);
    glutCreateWindow(argv[0]);
    init();
    glutDisplayFunc(display);
    glutReshapeFunc(reshape);
    glutKeyboardFunc(keyboard);
    glutMainLoop();
    return 0;
}