^D:\OPENGL\OPENGL\X64\DEBUG\MAIN.OBJ
/OUT:"D:\OPENGL\X64\DEBUG\OPENGL.EXE" /INCREMENTAL /NOLOGO GLFW3.LIB OPENGL32.LIB KERNEL32.LIB USER32.LIB GDI32.LIB WINSPOOL.LIB COMDLG32.LIB ADVAPI32.LIB SHELL32.LIB OLE32.LIB OLEAUT32.LIB UUID.LIB ODBC32.LIB ODBCCP32.LIB /MANIFEST /MANIFESTUAC:"level='asInvoker' uiAccess='false'" /manifest:embed /DEBUG:FASTLINK /PDB:"D:\OPENGL\X64\DEBUG\OPENGL.PDB" /SUBSYSTEM:CONSOLE /TLBID:1 /DYNAMICBASE /NXCOMPAT /IMPLIB:"D:\OPENGL\X64\DEBUG\OPENGL.LIB" /MACHINE:X64 X64\DEBUG\MAIN.OBJ
^D:\OPENGL\SHADER_OPENGL\OPENGL\OPENGL\OPENGL\X64\DEBUG\MAIN.OBJ
/OUT:"D:\OPENGL\SHADER_OPENGL\OPENGL\OPENGL\X64\DEBUG\OPENGL.EXE" /INCREMENTAL /NOLOGO GLFW3.LIB OPENGL32.LIB KERNEL32.LIB USER32.LIB GDI32.LIB WINSPOOL.LIB COMDLG32.LIB ADVAPI32.LIB SHELL32.LIB OLE32.LIB OLEAUT32.LIB UUID.LIB ODBC32.LIB ODBCCP32.LIB /MANIFEST /MANIFESTUAC:"level='asInvoker' uiAccess='false'" /manifest:embed /DEBUG:FASTLINK /PDB:"D:\OPENGL\SHADER_OPENGL\OPENGL\OPENGL\X64\DEBUG\OPENGL.PDB" /SUBSYSTEM:CONSOLE /TLBID:1 /DYNAMICBASE /NXCOMPAT /IMPLIB:"D:\OPENGL\SHADER_OPENGL\OPENGL\OPENGL\X64\DEBUG\OPENGL.LIB" /MACHINE:X64 X64\DEBUG\MAIN.OBJ
^D:\OPENGL\SHADER_OPENGL\OPENGL\OPENGL\OPENGL\X64\DEBUG\GLAD.OBJ|D:\OPENGL\SHADER_OPENGL\OPENGL\OPENGL\OPENGL\X64\DEBUG\MAIN.OBJ
/OUT:"D:\OPENGL\SHADER_OPENGL\OPENGL\OPENGL\X64\DEBUG\OPENGL.EXE" /INCREMENTAL /NOLOGO GLFW3.LIB OPENGL32.LIB KERNEL32.LIB USER32.LIB GDI32.LIB WINSPOOL.LIB COMDLG32.LIB ADVAPI32.LIB SHELL32.LIB OLE32.LIB OLEAUT32.LIB UUID.LIB ODBC32.LIB ODBCCP32.LIB /MANIFEST /MANIFESTUAC:"level='asInvoker' uiAccess='false'" /manifest:embed /DEBUG:FASTLINK /PDB:"D:\OPENGL\SHADER_OPENGL\OPENGL\OPENGL\X64\DEBUG\OPENGL.PDB" /SUBSYSTEM:CONSOLE /TLBID:1 /DYNAMICBASE /NXCOMPAT /IMPLIB:"D:\OPENGL\SHADER_OPENGL\OPENGL\OPENGL\X64\DEBUG\OPENGL.LIB" /MACHINE:X64 X64\DEBUG\GLAD.OBJ
X64\DEBUG\MAIN.OBJ
