^D:\OPENGL\OPENGL_VISUAL STUDIO\OPENGL_VISUAL STUDIO\OPENGL_VISUAL STUDIO\MAIN.CPP
D:\OPENGL\OPENGL_VISUAL STUDIO\OPENGL_VISUAL STUDIO\OPENGL_VISUAL STUDIO\DEBUG\VC142.PDB
D:\OPENGL\OPENGL_VISUAL STUDIO\OPENGL_VISUAL STUDIO\OPENGL_VISUAL STUDIO\DEBUG\VC142.IDB
D:\OPENGL\OPENGL_VISUAL STUDIO\OPENGL_VISUAL STUDIO\OPENGL_VISUAL STUDIO\DEBUG\MAIN.OBJ
