^D:\GT\SEMESTER 5\OPENGL VISUAL STUDIO\OPENGL_VISUAL STUDIO\OPENGL_VISUAL STUDIO\DEBUG\MAIN.OBJ
/OUT:"D:\GT\SEMESTER 5\OPENGL VISUAL STUDIO\OPENGL_VISUAL STUDIO\DEBUG\OPENGL_VISUAL STUDIO.EXE" /INCREMENTAL /NOLOGO /LIBPATH:"D:\GT\SEMESTER 5\OPENGL VISUAL STUDIO\OPENGL_VISUAL STUDIO\\DEPENDENCIES\GLEW-2.1.0\LIB\RELEASE\WIN32" /LIBPATH:"D:\GT\SEMESTER 5\OPENGL VISUAL STUDIO\OPENGL_VISUAL STUDIO\\DEPENDENCIES\FREEGLUT\LIB\WIN32" FREEGLUT.LIB GLEW32.LIB KERNEL32.LIB USER32.LIB GDI32.LIB WINSPOOL.LIB COMDLG32.LIB ADVAPI32.LIB SHELL32.LIB OLE32.LIB OLEAUT32.LIB UUID.LIB ODBC32.LIB ODBCCP32.LIB /MANIFEST /MANIFESTUAC:"level='asInvoker' uiAccess='false'" /manifest:embed /DEBUG:FASTLINK /PDB:"D:\GT\SEMESTER 5\OPENGL VISUAL STUDIO\OPENGL_VISUAL STUDIO\DEBUG\OPENGL_VISUAL STUDIO.PDB" /SUBSYSTEM:CONSOLE /TLBID:1 /DYNAMICBASE /NXCOMPAT /IMPLIB:"D:\GT\SEMESTER 5\OPENGL VISUAL STUDIO\OPENGL_VISUAL STUDIO\DEBUG\OPENGL_VISUAL STUDIO.LIB" /MACHINE:X86 DEBUG\MAIN.OBJ
^D:\OPENGL\OPENGL_VISUAL STUDIO\OPENGL_VISUAL STUDIO\OPENGL_VISUAL STUDIO\DEBUG\MAIN.OBJ
/OUT:"D:\OPENGL\OPENGL_VISUAL STUDIO\OPENGL_VISUAL STUDIO\DEBUG\OPENGL_VISUAL STUDIO.EXE" /INCREMENTAL /NOLOGO /LIBPATH:"D:\OPENGL\OPENGL_VISUAL STUDIO\OPENGL_VISUAL STUDIO\\DEPENDENCIES\GLEW-2.1.0\LIB\RELEASE\WIN32" /LIBPATH:"D:\OPENGL\OPENGL_VISUAL STUDIO\OPENGL_VISUAL STUDIO\\DEPENDENCIES\FREEGLUT\LIB\WIN32" FREEGLUT.LIB GLEW32.LIB KERNEL32.LIB USER32.LIB GDI32.LIB WINSPOOL.LIB COMDLG32.LIB ADVAPI32.LIB SHELL32.LIB OLE32.LIB OLEAUT32.LIB UUID.LIB ODBC32.LIB ODBCCP32.LIB /MANIFEST /MANIFESTUAC:"level='asInvoker' uiAccess='false'" /manifest:embed /DEBUG:FASTLINK /PDB:"D:\OPENGL\OPENGL_VISUAL STUDIO\OPENGL_VISUAL STUDIO\DEBUG\OPENGL_VISUAL STUDIO.PDB" /SUBSYSTEM:CONSOLE /TLBID:1 /DYNAMICBASE /NXCOMPAT /IMPLIB:"D:\OPENGL\OPENGL_VISUAL STUDIO\OPENGL_VISUAL STUDIO\DEBUG\OPENGL_VISUAL STUDIO.LIB" /MACHINE:X86 DEBUG\MAIN.OBJ
